<?xml version="1.0" encoding="utf-8" standalone="no"?><!DOCTYPE svg PUBLIC "-//W3C//DTD SVG 20010904//EN" "http://www.w3.org/TR/2001/REC-SVG-20010904/DTD/svg10.dtd"><svg xmlns="http://www.w3.org/2000/svg" width="645" height="390" xmlns:xlink="http://www.w3.org/1999/xlink"><source><![CDATA[Title: Request Padrão stone-financ-server
Usuário->Controller: request
Controller->Service: operação
Service->Repositório: persistência
Repositório->H2 Database: dados 
Repositório-->Service:
Service-->Controller:
Controller-->Usuário:



]]></source><desc>Request Padrão stone-financ-server</desc><defs><marker viewBox="0 0 5 5" markerWidth="5" markerHeight="5" orient="auto" refX="5" refY="2.5" id="markerArrowBlock"><path d="M 0 0 L 5 2.5 L 0 5 z"></path></marker><marker viewBox="0 0 9.6 16" markerWidth="4" markerHeight="16" orient="auto" refX="9.6" refY="8" id="markerArrowOpen"><path d="M 9.6,8 1.92,16 0,13.7 5.76,8 0,2.286 1.92,0 9.6,8 z"></path></marker></defs><g class="title"><path d="M10,10C273.0,22.5 248.0,-2.5 323.1,10.0C321.8,36.9 324.4,15.1 323.1,42.0C244.0,54.5 154.1,29.5 10.0,42.0C11.3,36.0 8.7,30.2 10.0,10.0" stroke="#000000" fill="#ffffff" style="stroke-width: 2;"></path><text x="15" y="29" style="font-size: 16px; font-family: danielbd;"><tspan x="15">Request Padrão stone-financ-server</tspan></text></g><g class="actor"><path d="M10,52C73.0,48.5 23.9,55.5 97.0,52.0C98.6,61.6 95.4,58.4 97.0,92.0C59.0,88.5 76.1,95.5 10.0,92.0C11.6,84.6 8.4,60.5 10.0,52.0" stroke="#000000" fill="#ffffff" style="stroke-width: 2;"></path><text x="20" y="77" style="font-size: 16px; font-family: danielbd;"><tspan x="20">Usuário</tspan></text></g><g class="actor"><path d="M10,330C76.1,326.5 30.9,333.5 97.0,330.0C98.6,360.4 95.4,339.6 97.0,370.0C57.3,366.5 23.9,373.5 10.0,370.0C8.4,341.8 11.6,342.2 10.0,330.0" stroke="#000000" fill="#ffffff" style="stroke-width: 2;"></path><text x="20" y="355" style="font-size: 16px; font-family: danielbd;"><tspan x="20">Usuário</tspan></text></g><path d="M53.5,92.0C44.0,167.2 63.0,278.8 53.5,330.0" stroke="#000000" fill="none" style="stroke-width: 2;"></path><g class="actor"><path d="M116.984375,52C183.7,47.5 211.8,56.5 229.8,52.0C231.4,61.8 228.2,71.6 229.8,92.0C170.0,96.5 188.3,87.5 117.0,92.0C118.6,65.2 115.4,82.4 117.0,52.0" stroke="#000000" fill="#ffffff" style="stroke-width: 2;"></path><text x="126.984375" y="77.5" style="font-size: 16px; font-family: danielbd;"><tspan x="126.984375">Controller</tspan></text></g><g class="actor"><path d="M116.984375,330C187.9,334.5 211.8,325.5 229.8,330.0C228.2,336.4 231.4,363.4 229.8,370.0C206.8,365.5 135.0,374.5 117.0,370.0C115.4,338.3 118.6,339.6 117.0,330.0" stroke="#000000" fill="#ffffff" style="stroke-width: 2;"></path><text x="126.984375" y="355.5" style="font-size: 16px; font-family: danielbd;"><tspan x="126.984375">Controller</tspan></text></g><path d="M173.4,92.0C163.9,157.3 182.9,164.2 173.4,330.0" stroke="#000000" fill="none" style="stroke-width: 2;"></path><g class="actor"><path d="M249.828125,52C273.4,55.2 268.9,48.8 329.4,52.0C327.8,82.4 331.0,81.5 329.4,92.0C286.8,88.8 310.3,95.2 249.8,92.0C251.4,69.6 248.2,61.6 249.8,52.0" stroke="#000000" fill="#ffffff" style="stroke-width: 2;"></path><text x="260.828125" y="77" style="font-size: 16px; font-family: danielbd;"><tspan x="259.828125">Service</tspan></text></g><g class="actor"><path d="M249.828125,330C296.1,333.2 280.5,326.8 329.4,330.0C331.0,348.3 327.8,357.5 329.4,370.0C285.3,373.2 316.7,366.8 249.8,370.0C251.4,342.6 248.2,363.6 249.8,330.0" stroke="#000000" fill="#ffffff" style="stroke-width: 2;"></path><text x="260.828125" y="355" style="font-size: 16px; font-family: danielbd;"><tspan x="259.828125">Service</tspan></text></g><path d="M289.6,92.0C280.1,141.8 299.2,255.9 289.6,330.0" stroke="#000000" fill="none" style="stroke-width: 2;"></path><g class="actor"><path d="M349.4375,52C372.8,47.4 377.1,56.6 464.5,52.0C466.1,58.4 462.9,83.0 464.5,92.0C367.8,87.4 424.4,96.6 349.4,92.0C347.8,58.4 351.0,68.0 349.4,52.0" stroke="#000000" fill="#ffffff" style="stroke-width: 2;"></path><text x="359.4375" y="75" style="font-size: 16px; font-family: danielbd;"><tspan x="359.4375">Repositório</tspan></text></g><g class="actor"><path d="M349.4375,330C372.2,334.6 413.1,325.4 464.5,330.0C462.9,363.6 466.1,336.4 464.5,370.0C367.8,365.4 440.2,374.6 349.4,370.0C347.8,358.2 351.0,362.2 349.4,330.0" stroke="#000000" fill="#ffffff" style="stroke-width: 2;"></path><text x="359.4375" y="353" style="font-size: 16px; font-family: danielbd;"><tspan x="359.4375">Repositório</tspan></text></g><path d="M407.0,92.0C416.5,157.4 397.4,130.1 407.0,330.0" stroke="#000000" fill="none" style="stroke-width: 2;"></path><g class="actor"><path d="M484.5,52C594.2,46.8 583.8,57.2 615.1,52.0C613.5,85.6 616.7,82.4 615.1,92.0C582.9,97.2 567.8,86.8 484.5,92.0C486.1,81.9 482.9,74.9 484.5,52.0" stroke="#000000" fill="#ffffff" style="stroke-width: 2;"></path><text x="494.5" y="77" style="font-size: 16px; font-family: danielbd;"><tspan x="494.5">H2 Database</tspan></text></g><g class="actor"><path d="M484.5,330C536.9,335.2 525.5,324.8 615.1,330.0C616.7,355.6 613.5,342.9 615.1,370.0C583.8,375.2 555.3,364.8 484.5,370.0C486.1,339.6 482.9,357.3 484.5,330.0" stroke="#000000" fill="#ffffff" style="stroke-width: 2;"></path><text x="494.5" y="355" style="font-size: 16px; font-family: danielbd;"><tspan x="494.5">H2 Database</tspan></text></g><path d="M549.8,92.0C540.3,272.9 559.3,291.9 549.8,330.0" stroke="#000000" fill="none" style="stroke-width: 2;"></path><g class="signal"><text x="79.63671875" y="119.5" style="font-size: 16px; font-family: danielbd;"><tspan x="79.63671875">request</tspan></text><path d="M53.5,133.0C75.1,128.2 82.3,137.8 173.4,133.0" stroke="#000000" fill="none" style="stroke-width: 2; marker-end: url(&quot;#markerArrowBlock&quot;);"></path></g><g class="signal"><text x="194.91796875" y="161" style="font-size: 16px; font-family: danielbd;"><tspan x="194.91796875">operação</tspan></text><path d="M173.4,173.0C201.3,168.4 261.7,177.6 289.6,173.0" stroke="#000000" fill="none" style="stroke-width: 2; marker-end: url(&quot;#markerArrowBlock&quot;);"></path></g><g class="signal"><text x="300.56640625" y="201" style="font-size: 16px; font-family: danielbd;"><tspan x="300.56640625">persistência</tspan></text><path d="M289.6,213.0C308.4,208.3 350.7,217.7 407.0,213.0" stroke="#000000" fill="none" style="stroke-width: 2; marker-end: url(&quot;#markerArrowBlock&quot;);"></path></g><g class="signal"><text x="453.19921875" y="243.5" style="font-size: 16px; font-family: danielbd;"><tspan x="453.19921875">dados</tspan></text><path d="M407.0,250.0C460.7,244.3 470.2,255.7 549.8,250.0" stroke="#000000" fill="none" style="stroke-width: 2; marker-end: url(&quot;#markerArrowBlock&quot;);"></path></g><g class="signal"><text x="348.30078125" y="275" style="font-size: 16px; font-family: danielbd;"><tspan x="348.30078125"></tspan></text><path d="M407.0,270.0C308.4,274.7 355.9,265.3 289.6,270.0" stroke="#000000" fill="none" style="stroke-width: 2; stroke-dasharray: 6, 2; marker-end: url(&quot;#markerArrowBlock&quot;);"></path></g><g class="signal"><text x="231.51953125" y="295" style="font-size: 16px; font-family: danielbd;"><tspan x="231.51953125"></tspan></text><path d="M289.6,290.0C204.8,285.4 210.1,294.6 173.4,290.0" stroke="#000000" fill="none" style="stroke-width: 2; stroke-dasharray: 6, 2; marker-end: url(&quot;#markerArrowBlock&quot;);"></path></g><g class="signal"><text x="113.44921875" y="315" style="font-size: 16px; font-family: danielbd;"><tspan x="113.44921875"></tspan></text><path d="M173.4,310.0C137.0,305.2 97.3,314.8 53.5,310.0" stroke="#000000" fill="none" style="stroke-width: 2; stroke-dasharray: 6, 2; marker-end: url(&quot;#markerArrowBlock&quot;);"></path></g></svg>